 ,Company,Name,IDcard,Address,Phone_Number,Birth,Email,Department,Post,Salary,Annual,Entry
Example,TECKY,Ahmed,R1234567,"Phase II, Lei Tung Commercial Centre, Ap Lei Chau, Aberdeen",91234567,1999-10-10,ah@smthing.co.com,Human Resources Department,clerk,10000,7,2021-01-01
,TECKY,Peter,R1234567,"Phase II, Lei Tung Commercial Centre, Ap Lei Chau, Aberdeen",91234567,1999-10-10,ah@smthing.co.com,Human Resources Department,clerk,10000,7,2021-01-01
,TECKY,Mary,R1234567,"Phase II, Lei Tung Commercial Centre, Ap Lei Chau, Aberdeen",91234567,1999-10-10,ah@smthing.co.com,Human Resources Department,clerk,10000,7,2021-01-01